<?xml version="1.0" encoding="UTF-8"?>
<glyph name="braceleft" format="1">
  <advance width="996"/>
  <unicode hex="007B"/>
  <outline>
    <contour>
      <point x="390" y="694" type="curve"/>
      <point x="418" y="663"/>
      <point x="464" y="616"/>
      <point x="464" y="534" type="curve" smooth="yes"/>
      <point x="464" y="48" type="line" smooth="yes"/>
      <point x="464" y="-60"/>
      <point x="469" y="-62"/>
      <point x="553" y="-62" type="curve" smooth="yes"/>
      <point x="708" y="-62" type="line"/>
      <point x="708" y="-162" type="line"/>
      <point x="532" y="-162" type="line"/>
      <point x="524" y="-162" type="line" smooth="yes"/>
      <point x="358" y="-162"/>
      <point x="358" y="-66"/>
      <point x="358" y="17" type="curve" smooth="yes"/>
      <point x="358" y="470" type="line" smooth="yes"/>
      <point x="358" y="657"/>
      <point x="324" y="647"/>
      <point x="241" y="658" type="curve"/>
      <point x="241" y="730" type="line"/>
      <point x="324" y="741"/>
      <point x="358" y="731"/>
      <point x="358" y="918" type="curve" smooth="yes"/>
      <point x="358" y="1299" type="line" smooth="yes"/>
      <point x="358" y="1382"/>
      <point x="358" y="1478"/>
      <point x="524" y="1478" type="curve" smooth="yes"/>
      <point x="532" y="1478" type="line"/>
      <point x="708" y="1478" type="line"/>
      <point x="708" y="1378" type="line"/>
      <point x="553" y="1378" type="line" smooth="yes"/>
      <point x="469" y="1378"/>
      <point x="464" y="1375"/>
      <point x="464" y="1267" type="curve" smooth="yes"/>
      <point x="464" y="854" type="line" smooth="yes"/>
      <point x="464" y="772"/>
      <point x="418" y="725"/>
    </contour>
  </outline>
  <lib>
    <dict>
      <key>com.fontlab.hintData</key>
      <dict>
	<key>hhints</key>
	<array>
	  <dict>
	    <key>position</key>	    <integer>-162</integer>
	    <key>width</key>	    <integer>100</integer>
	  </dict>
	  <dict>
	    <key>position</key>	    <integer>658</integer>
	    <key>width</key>	    <integer>72</integer>
	  </dict>
	  <dict>
	    <key>position</key>	    <integer>1378</integer>
	    <key>width</key>	    <integer>100</integer>
	  </dict>
	</array>
	<key>vhints</key>
	<array>
	  <dict>
	    <key>position</key>
	    <integer>358</integer>
	    <key>width</key>
	    <integer>106</integer>
	  </dict>
	</array>
      </dict>
    </dict>
  </lib>
</glyph>
