<?xml version="1.0" encoding="UTF-8"?>
<glyph name="idieresis" format="1">
  <advance width="996"/>
  <unicode hex="00EF"/>
  <outline>
    <component base="dieresis" xOffset="-0,5" yOffset="105"/>
    <component base="dotlessi"/>
  </outline>
  <lib>
    <dict>
      <key>com.fontlab.hintData</key>
      <dict>
	<key>hhints</key>
	<array>
	  <dict>
	    <key>position</key>	    <integer>0</integer>
	    <key>width</key>	    <integer>133</integer>
	  </dict>
	  <dict>
	    <key>position</key>	    <integer>865</integer>
	    <key>width</key>	    <integer>133</integer>
	  </dict>
	  <dict>
	    <key>position</key>	    <integer>1212</integer>
	    <key>width</key>	    <integer>225</integer>
	  </dict>
	</array>
	<key>vhints</key>
	<array>
	  <dict>
	    <key>position</key>
	    <integer>200</integer>
	    <key>width</key>
	    <integer>221</integer>
	  </dict>
	  <dict>
	    <key>position</key>
	    <integer>435</integer>
	    <key>width</key>
	    <integer>128</integer>
	  </dict>
	  <dict>
	    <key>position</key>
	    <integer>576</integer>
	    <key>width</key>
	    <integer>222</integer>
	  </dict>
	</array>
      </dict>
    </dict>
  </lib>
</glyph>
